PORT,ISO2
BUTARITARI,KI
CANTON ISLAND,KI
CHUUK,FM
FUNAFUTI,TV
HONIARA,SB
JALUIT,MH
KAVIENG,PG
KIMBE,PG
KIRITIMATI,KI
KOSRAE,FM
LAE,PG
LELU,FM
LORENGAU,PG
MADANG,PG
MAJURO,MH
NIKUNAU ISLAND,KI
NORO,SB
NUKUORO,FM
PAGO PAGO,AS
POHNPEI,FM
PORT MORESBY,PG
RABAUL,PG
TAIOHAE,PF
TARAWA,KI
TEROKEN,FM
VANIMO,PG
VOKEO,PG
WEWAK,PG